0.0 0.0 0.0 0.0 0.0 0.0 
0.0 1.5181966018398467E-9 3.012359644058549E-8 2.9885550377336084E-7 2.049395976871521E-6 0.6286804119165839 
0.0 7.591067566519807E-10 1.5061851286810145E-8 1.4942769624475283E-7 1.0246947859298714E-6 0.3143402059166254 
0.0 1.2652184181305455E-10 2.5103802870293583E-9 2.4905299552144213E-8 1.7078705426910903E-7 0.05239135280512691 
0.0 1.054353901904312E-11 2.09198872843754E-10 2.0754450526728534E-9 1.4232272138005813E-8 0.004365946066985262 
0.0 5.271804078667615E-13 1.0459990949232095E-11 1.037726537219142E-10 7.145652507201682E-10 2.1829785264488322E-4 

